[2021.04.07 00:26:41] Launched version: 2007001, install beta: [FALSE], alpha: 0, debug mode: [FALSE]
[2021.04.07 00:26:41] Executable dir: C:/Users/User/AppData/Roaming/Telegram Desktop/, name: Telegram.exe
[2021.04.07 00:26:41] Initial working dir: C:/Users/User/AppData/Roaming/Telegram Desktop/
[2021.04.07 00:26:41] Working dir: C:/Users/User/AppData/Roaming/Telegram Desktop/
[2021.04.07 00:26:41] Command line: C:\Users\User\AppData\Roaming\Telegram Desktop\Telegram.exe
[2021.04.07 00:26:41] Executable path before check: C:/Users/User/AppData/Roaming/Telegram Desktop/Telegram.exe
[2021.04.07 00:26:41] Logs started
[2021.04.07 00:26:41] Connecting local socket to Global\cbb49eb511f5f39a1d1f28035943679a-{87A94AB0-E370-4cde-98D3-ACC110C5967D}...
[2021.04.07 00:26:41] This is the only instance of Telegram, starting server and app...
[2021.04.07 00:26:41] Moved logging from 'C:/Users/User/AppData/Roaming/Telegram Desktop/log_start0.txt' to 'C:/Users/User/AppData/Roaming/Telegram Desktop/log.txt'!
[2021.04.07 00:26:41] Opened 'C:/Users/User/AppData/Roaming/Telegram Desktop/tdata/working' for reading, the previous Telegram Desktop launch was not finished properly :( Crash log size: 0
[2021.04.07 00:26:41] Primary screen DPI: 96
[2021.04.07 00:26:41] Font: from ':/gui/fonts/DAOpenSansRegular.ttf' loaded 'DAOpenSansRegular'
[2021.04.07 00:26:41] Font: from ':/gui/fonts/DAVazirRegular.ttf' loaded 'DAVazirRegular'
[2021.04.07 00:26:41] Font: from ':/gui/fonts/DAOpenSansRegularItalic.ttf' loaded 'DAOpenSansRegularItalic'
[2021.04.07 00:26:41] Font: from ':/gui/fonts/DAVazirRegular.ttf' loaded 'DAVazirRegular'
[2021.04.07 00:26:41] Font: from ':/gui/fonts/DAOpenSansSemiboldAsBold.ttf' loaded 'DAOpenSansSemibold'
[2021.04.07 00:26:41] Font: from ':/gui/fonts/DAVazirMediumAsBold.ttf' loaded 'DAVazirMedium'
[2021.04.07 00:26:41] Font: from ':/gui/fonts/DAOpenSansSemiboldItalicAsBold.ttf' loaded 'DAOpenSansSemiboldItalic'
[2021.04.07 00:26:41] Font: from ':/gui/fonts/DAVazirMediumAsBold.ttf' loaded 'DAVazirMedium'
[2021.04.07 00:26:41] Font: from ':/gui/fonts/DAOpenSansSemiboldAsBold.ttf' loaded 'DAOpenSansSemibold'
[2021.04.07 00:26:49] Font: from ':/gui/fonts/DAVazirMediumAsBold.ttf' loaded 'DAVazirMedium'
[2021.04.07 00:26:49] Font: from ':/gui/fonts/DAOpenSansSemiboldItalicAsBold.ttf' loaded 'DAOpenSansSemiboldItalic'
[2021.04.07 00:26:49] Font: from ':/gui/fonts/DAVazirMediumAsBold.ttf' loaded 'DAVazirMedium'
[2021.04.07 00:26:50] App Info: reading settings...
[2021.04.07 00:26:50] App Info: reading encrypted settings...
[2021.04.07 00:26:50] Lang Info: Loaded cached, keys: 3112
[2021.04.07 00:26:53] OpenAL Logging Level: (not set)
[2021.04.07 00:26:54] Audio Playback Devices: OpenAL Soft on Наушники (OPPO Enco W11 Stereo);OpenAL Soft on Динамики (2- Conexant SmartAudio HD);OpenAL Soft on Головной телефон (OPPO Enco W11 Hands-Free AG Audio)
[2021.04.07 00:26:54] Audio Playback Default Device: OpenAL Soft on Наушники (OPPO Enco W11 Stereo)
[2021.04.07 00:26:54] Audio Capture Devices: OpenAL Soft on Микрофон (2- Conexant SmartAudio HD);OpenAL Soft on Головной телефон (OPPO Enco W11 Hands-Free AG Audio)
[2021.04.07 00:26:54] Audio Capture Default Device: OpenAL Soft on Микрофон (2- Conexant SmartAudio HD)
[2021.04.07 00:26:59] App Info: reading accounts info...
[2021.04.07 00:26:59] App Info: reading encrypted info...
[2021.04.07 00:26:59] App Info: reading map...
[2021.04.07 00:26:59] App Info: reading encrypted map...
[2021.04.07 00:26:59] App Info: reading encrypted user settings...
[2021.04.07 00:26:59] App Info: encrypted user settings read.
[2021.04.07 00:26:59] App Info: reading encrypted mtp data...
[2021.04.07 00:26:59] MTP Info: read keys, current: 3, to destroy: 0
[2021.04.07 00:26:59] Map read time: 432
[2021.04.07 00:27:00] App Info: reading encrypted mtp config...
[2021.04.07 00:27:06] Export Info: Destroy top bar by controller removal.
[2021.04.07 00:27:10] Config Error: Failed to get response, error: Error transferring https://google.com/resolve?name=apv3.stel.com&type=ANY&random_padding=2y5zJUFlvByH6fmxdoQ7h8c3IHGGtLm0nZtbgCA2TOZ5is41wcAPbqtcz5BRYLkVU6LEOM2439QA6PCdSJg8DMt7zEOUoac2IJ6EnbzW7YjfLxVCBHUrNwOadarq78 - server replied: Not Found (203)
[2021.04.07 00:27:10] Config Error: Failed to parse dns response JSON, error: illegal value
[2021.04.07 00:27:10] Config Error: Bad data size 0 required 344
[2021.04.07 00:27:32] Audio Info: recreating audio device and reattaching the tracks
[2021.04.07 00:27:35] Audio Info: Closing audio playback device.
[2021.04.07 00:27:39] Audio Info: recreating audio device and reattaching the tracks
[2021.04.07 00:27:42] Audio Info: Closing audio playback device.
[2021.04.07 00:28:20] Skipping message, because it is already in blocks!
[2021.04.07 00:29:06] Skipping message, because it is already in blocks!
[2021.04.07 00:31:36] Skipping message, because it is already in blocks!
[2021.04.07 00:40:44] Skipping message, because it is already in blocks!
[2021.04.07 00:44:32] Skipping message, because it is already in blocks!
[2021.04.07 00:46:25] Skipping message, because it is already in blocks!
